%YAML 1.1
%TAG !u! tag:unity3d.com,2011:
--- !u!114 &11400000
MonoBehaviour:
  m_ObjectHideFlags: 0
  m_CorrespondingSourceObject: {fileID: 0}
  m_PrefabInstance: {fileID: 0}
  m_PrefabAsset: {fileID: 0}
  m_GameObject: {fileID: 0}
  m_Enabled: 1
  m_EditorHideFlags: 0
  m_Script: {fileID: 11500000, guid: 14882406f79bbd342b57fadf27f4c741, type: 3}
  m_Name: DesertGrasses
  m_EditorClassIdentifier: 
  prototypes:
  - texture: {fileID: 2800000, guid: f72eaeae56b8a7b40aeff21652acc071, type: 3}
    prefab: {fileID: 0}
    size: {x: 0.5, y: 0.5, z: 0.5}
    layer: 0
    shape: 2
    customMesh: {fileID: 0}
    detailMesh: {fileID: 0}
    detailMaterial: {fileID: 0}
    shadowCastingMode: 0
    receiveShadow: 0
    alignToSurface: 0
    pivotOffset: 0
    bendFactor: 1
    color: {r: 0.6132076, g: 0.35162234, b: 0.24007654, a: 1}
